{
    "builders": [
      {
        "type": "vsphere-iso",
  
        "vcenter_server": "vc.vspherelab.local",
        "insecure_connection": "true",
        "username": "administrator@vspherelab.local",
        "password": "Kompasset123!",
        "cluster": "vccluster",
        "host": "esxihost1.vspherelab.local",
        
        "communicator": "winrm",
        "winrm_username": "Administrator",
        "winrm_password": "Kompasset123!",
 
        "vm_name":  "packerw16",
        "convert_to_template": "true",
        "cpus": "2",
        "ram": "2048",
        "network": "VM Network",
        "network_card": "vmxnet3",
        "datastore": "Datastore3",
        "disk_controller_type":  "lsilogic-sas",
	      "guest_os_type": "windows9Server64Guest",
        "disk_thin_provisioned": true,
        "disk_size": "32768",
      	"iso_paths": [
        "[Datastore1] ISO/win2016.iso",
        "[Datastore1] ISO/wintools.iso"
      ],
      "floppy_files": [
        "setup/autounattend.xml",
        "setup/setup.ps1",
        "setup/vmtools.cmd"
      ]
        
      }
    ]
  }